^C:\Users\Denied Christ\source\repos\eVOLUTION\eVOLUTION\eVOLUTION.vcxproj
C:\Users\Denied Christ\source\repos\eVOLUTION\Release\eVOLUTION.ipdb
C:\Users\Denied Christ\source\repos\eVOLUTION\Release\eVOLUTION.iobj
^C:\Users\Denied Christ\source\repos\eVOLUTION\eVOLUTION\eVOLUTION.vcxproj
C:\Users\Denied Christ\source\repos\eVOLUTION\Release\eVOLUTION.ipdb
C:\Users\Denied Christ\source\repos\eVOLUTION\Release\eVOLUTION.iobj
^C:\Users\Denied Christ\source\repos\eVOLUTION\eVOLUTION\eVOLUTION.vcxproj
C:\Users\Denied Christ\source\repos\eVOLUTION\Release\eVOLUTION.ipdb
C:\Users\Denied Christ\source\repos\eVOLUTION\Release\eVOLUTION.iobj
^C:\Users\Denied Christ\source\repos\eVOLUTION\eVOLUTION\eVOLUTION.vcxproj
C:\Users\Denied Christ\source\repos\eVOLUTION\Release\eVOLUTION.ipdb
C:\Users\Denied Christ\source\repos\eVOLUTION\Release\eVOLUTION.iobj
^C:\Users\Denied Christ\source\repos\eVOLUTION\eVOLUTION\eVOLUTION.vcxproj
C:\Users\Denied Christ\source\repos\eVOLUTION\Release\eVOLUTION.ipdb
C:\Users\Denied Christ\source\repos\eVOLUTION\Release\eVOLUTION.iobj
^C:\Users\Denied Christ\source\repos\eVOLUTION\eVOLUTION\eVOLUTION.vcxproj
C:\Users\Denied Christ\source\repos\eVOLUTION\Release\eVOLUTION.ipdb
C:\Users\Denied Christ\source\repos\eVOLUTION\Release\eVOLUTION.iobj
^C:\Users\Denied Christ\source\repos\eVOLUTION\eVOLUTION\eVOLUTION.vcxproj
C:\Users\Denied Christ\source\repos\eVOLUTION\Release\eVOLUTION.ipdb
C:\Users\Denied Christ\source\repos\eVOLUTION\Release\eVOLUTION.iobj
