^C:\USERS\DENIED CHRIST\SOURCE\REPOS\EVOLUTION\EVOLUTION\RELEASE\BOUNDRY.OBJ|C:\USERS\DENIED CHRIST\SOURCE\REPOS\EVOLUTION\EVOLUTION\RELEASE\BOUNDRYTEST.OBJ
C:\USERS\DENIED CHRIST\SOURCE\REPOS\EVOLUTION\RELEASE\EVOLUTION.EXE
C:\USERS\DENIED CHRIST\SOURCE\REPOS\EVOLUTION\RELEASE\EVOLUTION.PDB
